Employee Number,Basic Pay,Absent,Overtime,House Allowance,Earnings,Leave Pay,Notice Pay,Commission Pay,Arrears,Holiday Amount,Sick Off,Severance Pay,Car Benefit,HELB,Salary Advances,Plantinum Loan,Ufahamu Shares,Ufahamu Loan,Okoa Loan,Recovery,Majani Chai Insurance Brokers LTD,Pension,Loans,Shares,Other Deductions,NIC Loan,Safaricom Sacco
 UN005 ,10955,0,2338,1643,,2205,,,,1152,,,,,,0,0,0,0,,,,,,400,,
 IU080 ,10955,0,2528,1643,,2205,,,,0,,,,,,0,0,0,0,,,,,,400,,
 IU210 ,17640,0,19540,0,,3087,,,,8684,,,,,,0,0,0,0,,,,,,0,,
 IU376 ,10955,0,0,1643,,2205,,,,0,,,,,,0,0,0,125,,,,,,280,,
 IU382 ,10955,0,1664,1643,,2205,,,,0,,,,,,0,0,0,0,,,,,,380,,
 IU338 ,10955,0,2359,1643,,2205,,,,1152,,,,,,0,0,0,0,,,,,,420,,
 UV002 ,10955,0,2697,1643,,2205,,,,1152,,,,,,0,0,0,3700,,,,,,420,,
 UP003 ,10955,0,6151,1643,,1470,,,,0,,,,,,0,0,0,0,,,,,,480,,
 UP004 ,10955,0,5161,1643,,1470,,,,0,,,,,,0,0,0,0,,,,,,500,,
 IU275 ,10955,0,1159,1643,,2205,,,,0,,,,,,0,0,0,5250,,,,,,380,,
 UN013 ,10955,0,2338,1643,,2205,,,,1152,,,,,,0,0,0,0,,,,,,400,,
 IU326 ,10955,0,4255,1643,,2205,,,,0,,,,,,2517,0,0,3650,,,,,,440,,
 UV004 ,10955,0,0,1643,,2205,,,,0,,,,,,0,0,0,0,,,,,,320,,
 IU060 ,10955,0,0,1643,,1470,,,,0,,,,,,0,0,0,3700,,,,,,320,,
 UV006 ,10955,0,632,1643,,2205,,,,0,,,,,,0,0,0,3650,,,,,,360,,
 UV007 ,10955,0,295,1643,,2205,,,,1376,,,,,,0,0,0,0,,,,,,380,,
 US003 ,10955,0,0,1643,,2205,,,,0,,,,,,0,0,0,0,,,,,,340,,
 IU265 ,10955,0,0,1643,,2205,,,,0,,,,,,0,0,0,0,,,,,,240,,
 IU277 ,10955,0,3392,1643,,2205,,,,0,,,,,,0,0,0,3700,,,,,,420,,
 IU138 ,10955,0,0,1643,,735,,,,0,,,,,,0,0,0,0,,,,,,300,,
 IU081 ,10955,0,0,1643,,735,,,,0,,,,,,0,0,0,0,,,,,,20,,
 UV009 ,10955,0,9080,1643,,2205,,,,0,,,,,,0,0,0,3650,,,,,,540,,
 UN018 ,10955,0,5814,1643,,2205,,,,0,,,,,,0,0,0,0,,,,,,480,,
 IU082 ,10955,0,1496,1643,,2205,,,,1152,,,,,,0,0,0,0,,,,,,400,,
 UV010 ,10955,0,969,1643,,2205,,,,0,,,,,,0,0,0,0,,,,,,360,,
 IU202 ,10955,0,6025,1643,,1470,,,,1152,,,,,,0,0,0,0,,,,,,540,,
 UN023 ,10955,0,1138,1643,,2205,,,,1152,,,,,,0,0,0,3700,,,,,,380,,
 IU083 ,10955,0,0,1643,,735,,,,0,,,,,,0,0,0,3850,,,,,,20,,
 IU331 ,10955,0,2528,1643,,2205,,,,0,,,,,,0,0,0,3650,,,,,,400,,
 US007 ,10955,0,0,1643,,2205,,,,0,,,,,,0,0,0,0,,,,,,300,,
 IU004 ,10955,0,1327,1643,,2205,,,,0,,,,,,0,0,0,0,,,,,,380,,
 US008 ,10955,0,0,1643,,2205,,,,0,,,,,,0,0,0,3700,,,,,,340,,
IU325,10955,0,5456,1643,,2205,,,,0,,,,,,0,0,0,3650,,,,,,460,,
 IU242 ,10955,0,6805,1643,,2205,,,,3230,,,,,,0,0,0,3700,,,,,,580,,
 IU085 ,10955,0,5288,1643,,735,,,,0,,,,,,4233,0,0,0,,,,,,460,,
 IU084 ,10955,0,2570,1643,,1470,,,,0,,,,,,4783,0,0,4200,,,,,,440,,
 IU203 ,10955,0,0,1643,,2205,,,,1376,,,,,,0,0,0,3650,,,,,,320,,
 IU086 ,10955,0,6678,1643,,1470,,,,0,,,,,,0,0,0,4400,,,,,,500,,
 IU386 ,10955,0,1685,1643,,2205,,,,2303,,,,,,0,0,0,0,,,,,,440,,
 IU267 ,10955,0,0,1643,,2205,,,,0,,,,,,0,0,0,0,,,,,,180,,
 IU211 ,10955,0,969,1643,,2205,,,,0,,,,,,0,0,0,0,,,,,,360,,
 UV012 ,10955,0,4298,1643,,2205,,,,2303,,,,,,0,0,0,5500,,,,,,520,,
 IU323 ,10955,0,6151,1643,,2205,,,,0,,,,,,0,0,0,0,,,,,,480,,
 US011 ,10955,0,0,1643,,2205,,,,0,,,,,,0,0,0,5500,,,,,,220,,
 IU182 ,10955,0,0,1643,,2205,,,,0,,,,,,0,0,0,3700,,,,,,280,,
 IU066 ,10955,0,7036,1643,,2205,,,,2191,,,,,,0,0,0,0,,,,,,0,,
 UV013 ,10955,0,4424,1643,,2205,,,,0,,,,,,0,0,0,0,,,,,,440,,
 IU279 ,10955,0,801,1643,,2205,,,,0,,,,,,0,0,0,0,,,,,,360,,
 IU372 ,10955,0,0,1643,,2205,,,,0,,,,,,0,0,0,0,,,,,,320,,
 IU352 ,10955,0,1496,1643,,735,,,,0,,,,,,0,0,0,0,,,,,,380,,
 US012 ,10955,0,0,1643,,2205,,,,0,,,,,,0,0,0,0,,,,,,220,,
 US013 ,10955,0,0,1643,,2205,,,,0,,,,,,0,0,0,0,,,,,,280,,
 UN030 ,10955,0,5161,1643,,2205,,,,2303,,,,,,0,0,0,3150,,,,,,540,,
 UP013 ,10955,0,7015,1643,,1470,,,,0,,,,,,0,0,0,0,,,,,,500,,
 UV014 ,10955,0,1854,1643,,2205,,,,1376,,,,,,0,0,0,0,,,,,,420,,
 UP014 ,10955,0,7015,1643,,1470,,,,0,,,,,,0,0,0,0,,,,,,0,,
 IU140 ,10955,0,990,1643,,1470,,,,0,,,,,,0,0,0,0,,,,,,380,,
 IU389 ,10955,0,1685,1643,,2205,,,,1152,,,,,,0,0,0,3700,,,,,,420,,
 IU009 ,10955,0,1833,1643,,2205,,,,0,,,,,,0,0,0,0,,,,,,380,,
 UN035 ,10955,0,463,1643,,2205,,,,1152,,,,,,0,0,0,0,,,,,,380,,
 IU346 ,10955,0,0,1643,,2205,,,,0,,,,,,0,0,0,0,,,,,,280,,
 IU337 ,10955,0,7184,1643,,2205,,,,0,,,,,,0,0,0,0,,,,,,500,,
 IU392 ,10955,0,6657,1643,,2205,,,,1152,,,,,,0,0,0,0,,,,,,500,,
 IU088 ,10955,0,843,1643,,2205,,,,2303,,,,,,0,0,0,0,,,,,,440,,
 IU339 ,10955,0,6847,1643,,2205,,,,3455,,,,,,0,0,0,0,,,,,,560,,
 IU010 ,10955,0,6088,1643,,2205,,,,1152,,,,,,0,0,0,0,,,,,,520,,
 IU199 ,10955,0,0,1643,,2205,,,,0,,,,,,0,0,0,0,,,,,,300,,
 UV015 ,10955,0,7015,1643,,1470,,,,0,,,,,,0,0,0,5500,,,,,,500,,
 IU280 ,10955,0,2359,1643,,2205,,,,0,,,,,,1383,0,0,5500,,,,,,400,,
 UV016 ,10955,0,7015,1643,,2205,,,,0,,,,,,0,0,0,0,,,,,,500,,
 IU340 ,10955,0,0,1643,,2205,,,,0,,,,,,0,0,0,0,,,,,,320,,
 IU170 ,10955,0,0,1643,,2205,,,,0,,,,,,0,0,0,0,,,,,,320,,
 UN042 ,10955,0,0,1643,,2205,,,,0,,,,,,0,0,0,3700,,,,,,280,,
 US015 ,18000,0,9900,0,,2205,,,,7569,,,,,,0,0,0,2625,,,,,,600,,
 IU359 ,10955,0,463,1643,,2205,,,,1152,,,,,,0,0,0,0,,,,,,380,,
 UN044 ,10955,0,1685,1643,,2205,,,,1152,,,,,,0,0,0,0,,,,,,420,,
 IU213 ,18522,0,0,0,,3241,,,,3040,,,,,,0,0,0,0,,,,,,0,,
 IU375 ,10955,0,632,1643,,735,,,,1152,,,,,,0,0,0,3700,,,,,,380,,
 UN048 ,10955,0,1685,1643,,2205,,,,2303,,,,,,0,0,0,3650,,,,,,440,,
 UN049 ,10955,0,1664,1643,,2205,,,,1152,,,,,,0,0,0,4950,,,,,,400,,
 UN051 ,10955,0,3181,1643,,2205,,,,0,,,,,,0,0,0,3700,,,,,,380,,
 UV018 ,10955,0,1138,1643,,2205,,,,1152,,,,,,0,0,0,3700,,,,,,380,,
 UV019 ,10955,0,6004,1643,,2205,,,,4831,,,,,,0,0,0,5500,,,,,,580,,
 IU072 ,10955,0,0,1643,,2205,,,,0,,,,,,0,0,0,0,,,,,,320,,
 IU155 ,24348,0,0,3652,,2934,,,,0,,,,,,0,0,0,0,,,,,,320,,
 IU089 ,10955,0,4951,1643,,2205,,,,2303,,,,,,0,0,0,0,,,,,,500,,
 UV021 ,10955,0,4424,1643,,2205,,,,0,,,,,,0,0,0,0,,,,,,440,,
 IU183 ,10955,0,0,1643,,0,,,,1376,,,,,,0,0,0,0,,,,,,280,,
 IU184 ,10955,0,969,1643,,2205,,,,1152,,,,,,0,0,0,3700,,,,,,380,,
 IU090 ,10955,0,7352,1643,,735,,,,0,,,,,,0,0,0,0,,,,,,500,,
 IU065 ,10955,0,7753,1643,,2205,,,,2191,,,,,,0,0,0,0,,,,,,0,,
 IU281 ,24348,0,0,3652,,4900,,,,0,,,,,,0,0,0,0,,,,,,0,,
 UP019 ,10955,0,1496,1643,,735,,,,0,,,,,,0,0,0,3700,,,,,,380,,
 UV023 ,10955,0,4424,1643,,2205,,,,0,,,,,,2517,0,0,0,,,,,,440,,
 IU380 ,10955,0,0,1643,,2205,,,,2303,,,,,,0,0,0,0,,,,,,360,,
 IU091 ,10955,0,8047,1643,,1470,,,,0,,,,,,0,0,0,0,,,,,,520,,
 UP020 ,10955,0,0,1643,,735,,,,0,,,,,,0,1500,0,5500,,,,,,240,,
 UN057 ,10955,0,2338,1643,,2205,,,,1152,,,,,,0,0,0,3700,,,,,,400,,
 IU283 ,10955,0,0,1643,,2205,,,,1152,,,,,,0,0,0,0,,,,,,360,,
 IU384 ,24348,0,7632,3652,,2205,,,,0,,,,,,0,0,0,0,,,,,,460,,
 UV024 ,10955,0,969,1643,,2205,,,,1152,,,,,,0,0,0,0,,,,,,380,,
 IU357 ,10955,0,969,1643,,735,,,,0,,,,,,0,0,0,0,,,,,,360,,
 IU393 ,10955,0,6004,1643,,2205,,,,2303,,,,,,0,0,0,7350,,,,,,540,,
 IU388 ,10955,0,2549,1643,,2205,,,,2303,,,,,,0,0,0,3700,,,,,,460,,
 UP022 ,10955,0,0,1643,,2205,,,,0,,,,,,0,0,0,0,,,,,,380,,
 US017 ,10955,0,0,1643,,2205,,,,0,,,,,,0,0,0,0,,,,,,0,,
 IU185 ,10955,0,0,1643,,2205,,,,0,,,,,,0,0,0,0,,,,,,280,,
 IU374 ,10955,0,969,1643,,735,,,,0,,,,,,0,0,0,0,,,,,,360,,
 US018 ,18000,0,0,0,,2205,,,,0,,,,,,0,0,0,3700,,,,,,280,,
 UR001 ,10955,0,6615,1643,,2205,,,,0,,,,,,0,0,0,0,,,,,,520,,
 IU186 ,10955,0,0,1643,,2205,,,,0,,,,,,0,0,0,0,,,,,,260,,
 IU012 ,10955,0,1327,1643,,2205,,,,0,,,,,,0,0,0,0,,,,,,380,,
 IU284 ,10955,0,4424,1643,,2205,,,,0,,,,,,0,0,0,0,,,,,,440,,
 IU246 ,10955,0,0,1643,,2205,,,,0,,,,,,0,0,0,3700,,,,,,240,,
 IU074 ,10955,0,0,1643,,2205,,,,0,,,,,,3650,0,0,0,,,,,,260,,
 IU092 ,10955,0,0,1643,,735,,,,0,,,,,,4103,0,0,6200,,,,,,360,,
 IU377 ,10955,0,0,1643,,2205,,,,2303,,,,,,0,0,0,0,,,,,,340,,
 UN064 ,10955,0,2149,1643,,2205,,,,0,,,,,,0,0,0,0,,,,,,360,,
 IU215 ,10955,0,11271,1643,,2205,,,,1376,,,,,,0,0,0,3650,,,,,,560,,
 UV025 ,10955,0,0,1643,,2205,,,,1376,,,,,,0,0,0,0,,,,,,320,,
 IU360 ,10955,0,0,1643,,2205,,,,1376,,,,,,0,0,0,0,,,,,,340,,
 UN069 ,10955,0,2528,1643,,2205,,,,0,,,,,,0,0,0,0,,,,,,400,,
 IU093 ,10955,0,3918,1643,,2205,,,,2303,,,,,,0,0,0,0,,,,,,480,,
 IU394 ,10955,0,0,1643,,2205,,,,0,,,,,,0,0,0,0,,,,,,280,,
 IU094 ,10955,0,0,1643,,735,,,,0,,,,,,0,0,0,0,,,,,,240,,
 US021 ,10955,0,0,1643,,2205,,,,0,,,,,,0,0,0,0,,,,,,340,,
 IU014 ,10955,0,990,1643,,2205,,,,1376,,,,,,0,0,0,0,,,,,,400,,
 IU285 ,10955,0,6489,1643,,2205,,,,1376,,,,,,0,0,0,0,,,,,,500,,
 IU216 ,10955,0,6194,1643,,2205,,,,4831,,,,,,0,0,0,0,,,,,,600,,
 UP027 ,10955,0,2359,1643,,735,,,,0,,,,,,0,0,0,0,,,,,,400,,
 IU255 ,10955,0,6025,1643,,2205,,,,1152,,,,,,0,0,0,0,,,,,,540,,
 IU396 ,10955,0,4930,1643,,0,,,,0,,,,,,0,0,0,0,,,,,,440,,
 IU369 ,10955,0,0,1643,,735,,,,0,,,,,,0,0,0,0,,,,,,280,,
 UV026 ,10955,0,7542,1643,,2205,,,,3455,,,,,,0,0,0,5500,,,,,,580,,
 IU217 ,28000,0,2154,0,,4900,,,,8328,,,,,,0,0,0,5500,,,,,,0,,
 UN079 ,10955,0,5793,1643,,2205,,,,1152,,,,,,0,0,0,3700,,,,,,480,,
 IU173 ,10955,0,295,1643,,2205,,,,2303,,,,,,0,0,0,0,,,,,,400,,
 IU095 ,10955,0,0,1643,,2205,,,,0,,,,,,0,0,0,0,,,,,,240,,
 IU361 ,10955,0,5945,1643,,1470,,,,5758,,,,,,0,0,0,3650,,,,,,600,,
 UP031 ,10955,0,0,1643,,735,,,,0,,,,,,0,0,0,0,,,,,,60,,
 IU373 ,10955,0,0,1643,,735,,,,0,,,,,,0,0,0,3700,,,,,,320,,
 IU286 ,10955,0,4424,1643,,1470,,,,0,,,,,,2517,0,0,3650,,,,,,440,,
 IU218 ,10955,0,6552,1643,,2205,,,,815,,,,,,0,0,0,5500,,,,,,540,,
 UV028 ,10955,0,0,1643,,1470,,,,1376,,,,,,0,0,0,0,,,,,,340,,
 IU260 ,10955,0,4424,1643,,1470,,,,0,,,,,,0,0,0,0,,,,,,440,,
 UN082 ,10955,0,0,1643,,2205,,,,0,,,,,,0,0,0,0,,,,,,260,,
 IU263 ,10955,0,0,1643,,1470,,,,0,,,,,,0,0,0,0,,,,,,340,,
 UN083 ,10955,0,5161,1643,,2205,,,,3455,,,,,,0,0,0,0,,,,,,560,,
 IU219 ,10955,0,0,1643,,2205,,,,0,,,,,,0,0,0,0,,,,,,240,,
 IU353 ,10955,0,0,1643,,735,,,,0,,,,,,0,0,0,0,,,,,,280,,
 IU220 ,28000,0,6138,0,,4900,,,,13928,,,,,,9317,0,0,7400,,,,,,0,,
 IU055 ,10955,0,7373,1643,,2205,,,,4831,,,,,,0,0,0,0,,,,,,600,,
 IU288 ,24348,0,0,3652,,4900,,,,0,,,,,,0,0,0,0,,,,,,0,,
 IU222 ,10955,0,5288,1643,,1470,,,,0,,,,,,0,0,0,0,,,,,,460,,
 IU355 ,10955,0,1833,1643,,1470,,,,1152,,,,,,0,0,0,0,,,,,,400,,
 UN085 ,10955,0,4277,1643,,2205,,,,2303,,,,,,0,0,0,0,,,,,,500,,
 IU341 ,10955,0,6362,1643,,2205,,,,1152,,,,,,0,0,0,3700,,,,,,540,,
 UV030 ,10955,0,9080,1643,,1470,,,,0,,,,,,0,0,0,0,,,,,,540,,
 IU289 ,10955,0,0,1643,,2205,,,,0,,,,,,0,0,0,0,,,,,,320,,
 IU356 ,10955,0,969,1643,,735,,,,0,,,,,,0,0,0,0,,,,,,360,,
 UN097 ,10955,0,632,1643,,2205,,,,1152,,,,,,0,0,0,0,,,,,,380,,
 IU291 ,10955,0,295,1643,,2205,,,,1376,,,,,,0,0,0,3650,,,,,,380,,
 IU223 ,10955,0,5288,1643,,2205,,,,0,,,,,,0,0,0,3650,,,,,,460,,
 US024 ,10955,0,969,1643,,1470,,,,0,,,,,,0,0,0,0,,,,,,360,,
 UV032 ,10955,0,0,1643,,1470,,,,0,,,,,,0,0,0,0,,,,,,120,,
 IU098 ,10955,0,4951,1643,,2205,,,,2303,,,,,,0,0,0,0,,,,,,500,,
 UN099 ,10955,0,1496,1643,,2205,,,,2303,,,,,,0,0,0,0,,,,,,420,,
 UN101 ,10955,0,0,1643,,2205,,,,2303,,,,,,0,0,0,0,,,,,,360,,
 UN102 ,10955,0,2718,1643,,2205,,,,2303,,,,,,0,0,0,0,,,,,,460,,
 UV034 ,10955,0,2697,1643,,2205,,,,0,,,,,,0,0,0,0,,,,,,400,,
 US026 ,10955,0,0,1643,,2205,,,,0,,,,,,0,0,0,3700,,,,,,320,,
 UP038 ,10955,0,7352,1643,,735,,,,0,,,,,,0,0,0,0,,,,,,500,,
 UV037 ,10955,0,0,1643,,2205,,,,0,,,,,,0,0,0,3700,,,,,,340,,
 US027 ,10955,0,0,1643,,1470,,,,0,,,,,,0,0,0,0,,,,,,320,,
 IU370 ,10955,0,1327,1643,,1470,,,,0,,,,,,0,0,0,0,,,,,,380,,
 IU101 ,10955,0,0,1643,,2205,,,,2303,,,,,,0,0,0,0,,,,,,340,,
 IU174 ,10955,0,0,1643,,2205,,,,1152,,,,,,0,0,0,0,,,,,,300,,
 IU354 ,10955,0,969,1643,,735,,,,0,,,,,,0,0,0,0,,,,,,360,,
 IU102 ,10955,0,0,1643,,735,,,,0,,,,,,0,0,0,0,,,,,,20,,
 UV039 ,10955,0,4424,1643,,2205,,,,0,,,,,,0,0,0,0,,,,,,440,,
 IU293 ,10955,0,3034,1643,,2205,,,,0,,,,,,0,0,0,0,,,,,,400,,
 IU077 ,10955,0,5625,1643,,2205,,,,2753,,,,,,0,0,0,3650,,,,,,500,,
 IU259 ,10955,0,0,1643,,2205,,,,0,,,,,,0,0,0,3700,,,,,,260,,
 US028 ,10955,0,0,1643,,2205,,,,0,,,,,,0,0,0,3700,,,,,,320,,
 IU175 ,10955,0,6847,1643,,2205,,,,3455,,,,,,0,0,0,0,,,,,,560,,
 UN109 ,10955,0,2338,1643,,2205,,,,1152,,,,,,0,0,0,0,,,,,,400,,
 IU103 ,10955,0,843,1643,,2205,,,,1152,,,,,,0,0,0,0,,,,,,420,,
 IU358 ,10955,0,0,1643,,1470,,,,0,,,,,,0,0,0,0,,,,,,0,,
 IU204 ,10955,0,6615,1643,,2205,,,,4382,,,,,,0,0,0,0,,,,,,600,,
 IU395 ,10955,0,6320,1643,,735,,,,0,,,,,,0,0,0,0,,,,,,480,,
 US029 ,10955,0,0,1643,,2205,,,,0,,,,,,0,0,0,0,,,,,,80,,
 IU067 ,10955,0,7036,1643,,2205,,,,2191,,,,,,0,0,0,0,,,,,,0,,
 IU295 ,10955,0,4424,1643,,2205,,,,1152,,,,,,0,0,0,0,,,,,,460,,
 IU319 ,10955,0,0,1643,,1470,,,,0,,,,,,0,0,0,5500,,,,,,300,,
 UV044 ,10955,0,0,1643,,2205,,,,1376,,,,,,0,0,0,0,,,,,,340,,
 IU078 ,20870,0,14609,3130,,2870,,,,10488,,,,,,0,0,0,0,,,,,,560,,
 IU297 ,10955,0,3560,1643,,2205,,,,0,,,,,,0,0,0,3650,,,,,,420,,
 IU106 ,10955,0,0,1643,,735,,,,0,,,,,,0,0,0,0,,,,,,80,,
 UN114 ,10955,0,5161,1643,,2205,,,,3455,,,,,,0,0,0,0,,,,,,560,,
 IU385 ,10955,0,274,1643,,2205,,,,1152,,,,,,0,0,0,0,,,,,,360,,
 IU298 ,10955,0,5288,1643,,2205,,,,0,,,,,,0,0,0,4200,,,,,,460,,
 IU299 ,10955,0,0,1643,,2205,,,,0,,,,,,0,0,0,3650,,,,,,280,,
 IU049 ,10955,0,1854,1643,,2205,,,,0,,,,,,0,0,0,0,,,,,,400,,
 IU107 ,10955,0,6489,1643,,2205,,,,0,,,,,,0,0,0,0,,,,,,480,,
 UN119 ,10955,0,4909,1643,,2205,,,,0,,,,,,0,0,0,0,,,,,,420,,
 UN120 ,10955,0,0,1643,,2205,,,,0,,,,,,0,0,0,0,,,,,,340,,
 IU328 ,10955,0,0,1643,,2205,,,,0,,,,,,0,0,0,0,,,,,,260,,
 US032 ,10955,0,2191,1643,,2205,,,,1152,,,,,,0,0,0,3700,,,,,,420,,
 IU022 ,10955,0,7352,1643,,2205,,,,0,,,,,,4783,0,0,3700,,,,,,500,,
 IU023 ,10955,0,0,1643,,2205,,,,1152,,,,,,0,0,0,0,,,,,,200,,
 IU227 ,18000,0,4431,0,,2205,,,,0,,,,,,0,0,0,0,,,,,,400,,
 IU121 ,10955,0,7352,1643,,1470,,,,0,,,,,,0,0,0,0,,,,,,500,,
 IU300 ,10955,0,0,1643,,2205,,,,0,,,,,,0,0,0,0,,,,,,320,,
 IU301 ,10955,0,2359,1643,,1470,,,,0,,,,,,0,0,0,0,,,,,,400,,
 US033 ,10955,0,0,1643,,2205,,,,1376,,,,,,0,0,0,0,,,,,,320,,
 IU158 ,10955,0,295,1643,,2205,,,,1152,,,,,,0,0,0,0,,,,,,380,,
 IU108 ,10955,0,0,1643,,735,,,,0,,,,,,0,0,0,0,,,,,,220,,
 UV052 ,10955,0,0,1643,,1470,,,,1152,,,,,,0,0,0,0,,,,,,240,,
 IU165 ,16538,0,7251,0,,2894,,,,0,,,,,,0,0,0,0,,,,,,0,,
 IU228 ,31500,0,13812,0,,5513,,,,1938,,,,,,0,0,0,0,,,,,,0,,
 IU142 ,10955,0,0,1643,,2205,,,,0,,,,,,0,0,0,0,,,,,,280,,
 UN127 ,10955,0,3918,1643,,2205,,,,1152,,,,,,0,0,0,0,,,,,,460,,
 UN128 ,10955,0,3202,1643,,2205,,,,1152,,,,,,0,0,0,3700,,,,,,420,,
 IU400 ,10955,0,0,1643,,735,,,,0,,,,,,0,0,0,0,,,,,,340,,
 UV055 ,10955,0,4424,1643,,2205,,,,0,,,,,,3650,0,0,0,,,,,,440,,
 IU371 ,10955,0,0,1643,,1470,,,,0,,,,,,0,0,0,0,,,,,,320,,
 IU304 ,10955,0,7542,1643,,2205,,,,4607,,,,,,0,0,0,3650,,,,,,600,,
 IU302 ,10955,0,3223,1643,,2205,,,,0,,,,,,0,0,0,0,,,,,,420,,
 IU402 ,50388,-21253,0,0,,0,,,,5297,,,,,,0,0,0,0,,,,,,220,,
 UN133 ,10955,0,801,1643,,2205,,,1500,0,,,,,,0,0,0,3700,,,,,,360,,
 US036 ,10955,0,0,1643,,1470,,,,0,,,,,,0,0,0,3700,,,,,,280,,
 IU347 ,10955,0,0,1643,,2205,,,,0,,,,,,0,0,0,0,,,,,,300,,
 UP048 ,10955,0,4298,1643,,2205,,,,0,,,,,,0,0,0,0,,,,,,480,,
 IU110 ,10955,0,463,1643,,2205,,,,0,,,,,,0,0,0,0,,,,,,360,,
 IU305 ,10955,0,0,1643,,2205,,,,1152,,,,,,0,0,0,3700,,,,,,360,,
 UP049 ,10955,0,0,1643,,735,,,,0,,,,,,0,0,0,0,,,,,,40,,
 UV057 ,10955,0,0,1643,,1470,,,,0,,,,,,0,0,0,3700,,,,,,300,,
 UN135 ,10955,0,0,1643,,2205,,,,0,,,,,,0,0,0,0,,,,,,340,,
 US037 ,10955,0,0,1643,,2205,,,,0,,,,,,0,0,0,0,,,,,,280,,
 IU329 ,10955,0,0,1643,,1470,,,,0,,,,,,0,0,0,0,,,,,,240,,
 IU231 ,18000,0,4223,0,,2205,,,,0,,,,,,0,0,0,0,,,,,,440,,
 IU306 ,10955,0,295,1643,,2205,,,,1376,,,,,,0,0,0,0,,,,,,380,,
 UV058 ,10955,0,990,1643,,2205,,,,1376,,,,,,0,0,0,3700,,,,,,400,,
 US038 ,10955,0,0,1643,,2205,,,,0,,,,,,0,0,0,0,,,,,,260,,
 IU307 ,10955,0,990,1643,,2205,,,,0,,,,,,0,0,0,0,,,,,,380,,
 IU079 ,10955,0,2022,1643,,2205,,,,0,,,,,,0,0,0,0,,,,,,400,,
 UV061 ,10955,0,0,1643,,2205,,,,0,,,,,,0,0,0,3700,,,,,,260,,
 US039 ,10955,0,0,1643,,2205,,,,0,,,,,,0,0,2362,0,,,,,,280,,
 IU321 ,10955,0,2359,1643,,2205,,,,1376,,,,,,0,0,0,3650,,,,,,420,,
 UV062 ,10955,0,0,1643,,2205,,,,1376,,,,,,0,0,0,0,,,,,,360,,
 IU379 ,10955,0,0,1643,,2205,,,,2303,,,,,,0,0,0,0,,,,,,360,,
 UV063 ,10955,0,0,1643,,2205,,,,0,,,,,,0,0,0,0,,,,,,0,,
 UV073 ,10955,0,2359,1643,,2205,,,,1376,,,,,,0,0,0,3700,,,,,,420,,
 IU268 ,10955,0,3392,1643,,2205,,,,0,,,,,,0,0,0,0,,,,,,420,,
 IU342 ,10955,0,6847,1643,,2205,,,,3455,,,,,,0,0,0,0,,,,,,560,,
 UN140 ,10955,0,0,1643,,2205,,,,0,,,,,,0,0,0,3700,,,,,,280,,
 IU308 ,10955,0,0,1643,,2205,,,,0,,,,,,0,0,0,0,,,,,,340,,
 UN141 ,10955,0,2338,1643,,2205,,,,1152,,,,,,0,0,0,0,,,,,,400,,
 UV065 ,10955,0,0,1643,,2205,,,,0,,,,,,0,0,0,0,,,,,,340,,
 UP052 ,10955,0,0,1643,,1470,,,,0,,,,,,0,0,0,0,,,,,,340,,
 IU309 ,10955,0,1664,1643,,2205,,,,0,,,,,,0,0,0,0,,,,,,380,,
 IU114 ,10955,0,0,1643,,1470,,,,0,,,,,,0,0,0,0,,,,,,260,,
 IU398 ,10955,0,1327,1643,,0,,,,0,,,,,,0,0,0,0,,,,,,380,,
 IU351 ,10955,0,969,1643,,735,,,,0,,,,,,0,0,0,0,,,,,,360,,
 IU378 ,10955,0,3918,1643,,2205,,,,0,,,,,,0,1500,0,7350,,,,,,440,,
 UN144 ,10955,0,1685,1643,,2205,,,,2303,,,,,,0,0,0,0,,,,,,440,,
 UF001 ,10955,0,7795,1643,,2205,,,,0,,,,,,0,0,0,0,,,,,,500,,
 UN145 ,10955,0,0,1643,,2205,,,,2303,,,,,,0,0,0,0,,,,,,340,,
 IU383 ,10955,0,0,1643,,2205,,,,1152,,,,,,0,0,0,0,,,,,,340,,
 IU071 ,10955,0,6025,1643,,2205,,,,4607,,,,,,0,0,0,0,,,,,,600,,
 IU387 ,10955,0,1685,1643,,2205,,,,2303,,,,,,0,0,0,0,,,,,,440,,
 IU362 ,10955,0,6151,1643,,735,,,,0,,,,,,0,0,0,0,,,,,,480,,
 IU117 ,10955,0,0,1643,,2205,,,,0,,,,,,0,0,0,0,,,,,,340,,
 US019 ,10955,0,0,1643,,1470,,,,0,,,,,,0,0,0,0,,,,,,280,,
 UM003 ,10955,0,11439,1643,,2205,,,,0,,,,,,0,0,0,0,,,,,,0,,
 UP055 ,10955,0,6489,1643,,1470,,,,0,,,,,,0,0,0,0,,,,,,480,,
 UV069 ,10955,0,969,1643,,2205,,,,0,,,,,,0,0,0,0,,,,,,360,,
 IU233 ,25872,0,1791,0,,4528,,,,0,,,,,,0,0,0,0,,,,,,0,,
 UV070 ,10955,0,295,1643,,2205,,,,0,,,,,,0,0,0,3700,,,,,,360,,
 IU118 ,10955,0,3181,1643,,2205,,,,0,,,,,,0,0,0,0,,,,,,380,,
 IU205 ,10955,0,0,1643,,1470,,,,0,,,,,,0,0,0,0,,,,,,300,,
 UP057 ,10955,0,0,1643,,1470,,,,0,,,,,,0,0,0,4400,,,,,,280,,
 IU261 ,10955,0,3560,1643,,1470,,,,0,,,,,,0,0,0,3700,,,,,,420,,
 IU122 ,10955,0,0,1643,,735,,,,0,,,,,,0,0,0,0,,,,,,300,,
 UP058 ,10955,0,9080,1643,,1470,,,,1152,,,,,,0,0,0,3700,,,,,,560,,
 IU310 ,10955,0,0,1643,,2205,,,,0,,,,,,0,0,0,0,,,,,,0,,
 IU311 ,10955,0,0,1643,,2205,,,,0,,,,,,0,0,0,3650,,,,,,200,,
 IU312 ,10955,0,2528,1643,,1470,,,,0,,,,,,0,0,0,0,,,,,,400,,
 IU120 ,10955,0,0,1643,,1470,,,,0,,,,,,0,0,0,0,,,,,,220,,
 UP060 ,10955,0,8047,1643,,1470,,,,0,,,,,,0,0,0,0,,,,,,520,,
 IU272 ,10955,0,0,1643,,1470,,,,0,,,,,,0,0,0,0,,,,,,280,,
 IU403 ,10955,0,2697,1643,,2205,,,,1152,,,,,,0,0,0,0,,,,,,420,,
 IU144 ,10955,0,0,1643,,1470,,,,0,,,,,,0,0,0,0,,,,,,260,,
 IU145 ,10955,0,9943,1643,,1470,,,,0,,,,,,0,0,0,0,,,,,,560,,
 IU257 ,10955,0,0,1643,,2205,,,,0,,,,,,0,0,0,0,,,,,,280,,
 UN155 ,10955,0,1685,1643,,2205,,,,2303,,,,,,0,0,0,0,,,,,,440,,
 IU313 ,10955,0,0,1643,,2205,,,,1376,,,,,,0,0,0,3650,,,,,,300,,
 UN158 ,10955,0,1685,1643,,2205,,,,2303,,,,,,0,0,0,0,,,,,,440,,
 US042 ,10955,0,0,1643,,2205,,,,0,,,,,,0,0,0,0,,,,,,220,,
 IU146 ,10955,0,1327,1643,,1470,,,,0,,,,,,0,0,0,0,,,,,,380,,
 IU147 ,10955,0,7352,1643,,1470,,,,0,,,,,,0,0,0,0,,,,,,500,,
 IU336 ,10955,0,4466,1643,,2205,,,,1152,,,,,,0,0,0,3700,,,,,,480,,
 IU234 ,18522,0,0,0,,3241,,,,0,,,,,,0,0,0,0,,,,,,0,,
 US041 ,10955,0,0,1643,,2205,,,,0,,,,,,0,0,0,0,,,,,,280,,
 US043 ,10955,0,2697,1643,,2205,,,,0,,,,,,0,0,0,0,,,,,,400,,
 UP064 ,10955,0,0,1643,,2205,,,,1152,,,,,,0,0,0,3650,,,,,,360,,
 IU348 ,10955,0,2697,1643,,1470,,,,0,,,,,,0,0,0,0,,,,,,400,,
 US044 ,10955,0,0,1643,,1470,,,,0,,,,,,0,0,0,5500,,,,,,340,,
 US046 ,10955,0,3560,1643,,2205,,,,0,,,,,,0,0,2310,0,,,,,,420,,
 US047 ,10955,0,0,1643,,1470,,,,0,,,,,,0,0,0,0,,,,,,320,,
 US049 ,10955,0,0,1643,,1470,,,,0,,,,,,0,0,0,0,,,,,,300,,
 UV075 ,10955,0,0,1643,,2205,,,,1152,,,,,,0,0,0,3650,,,,,,300,,
 US050 ,18000,0,0,0,,1470,,,,0,,,,,,0,0,0,0,,,,,,300,,
 UN162 ,10955,0,4782,1643,,2205,,,,1152,,,,,,0,0,0,0,,,,,,480,,
 US051 ,10955,0,0,1643,,2205,,,,0,,,,,,0,0,0,0,,,,,,220,,
 UN165 ,10955,0,5646,1643,,2205,,,,2303,,,,,,0,0,0,0,,,,,,520,,
 IU254 ,10955,0,0,1643,,2205,,,,1376,,,,,,0,0,0,3650,,,,,,360,,
 IU031 ,10955,0,8047,1643,,1470,,,,0,,,,,,0,0,0,0,,,,,,520,,
 UV076 ,10955,0,969,1643,,2205,,,,0,,,,,,0,0,0,0,,,,,,360,,
 IU235 ,22227,0,0,0,,3890,,,,5699,,,,,,0,0,0,0,,,,,,0,,
 IU363 ,10955,0,2022,1643,,735,,,,0,,,,,,0,0,0,0,,,,,,400,,
 UV077 ,10955,0,295,1643,,2205,,,,1376,,,,,,0,0,0,0,,,,,,380,,
 UV078 ,10955,0,0,1643,,2205,,,,0,,,,,,0,0,0,0,,,,,,320,,
 UP069 ,10955,0,0,1643,,1470,,,,0,,,,,,0,0,0,0,,,,,,340,,
 UV079 ,10955,0,3392,1643,,2205,,,,0,,,,,,0,0,0,3700,,,,,,420,,
 IU364 ,10955,0,6809,1643,,2205,,,,5758,,,,,,0,0,0,0,,,,,,620,,
 UV080 ,10955,0,5119,1643,,2205,,,,0,,,,,,0,0,0,3650,,,,,,460,,
 IU236 ,10955,0,4424,1643,,2205,,,,1376,,,,,,0,0,0,0,,,,,,460,,
 UV082 ,10955,0,5288,1643,,2205,,,,0,,,,,,0,0,0,0,,,,,,460,,
 IU343 ,10955,0,2191,1643,,2205,,,,0,,,,,,0,0,0,3650,,,,,,400,,
 IU048 ,10955,0,0,1643,,2205,,,,1376,,,,,,0,0,0,0,,,,,,380,,
 UN176 ,10955,0,1685,1643,,2205,,,,2303,,,,,,0,0,0,0,,,,,,440,,
 IU206 ,18522,0,0,0,,3241,,,,0,,,,,,7050,0,0,5500,,,,,,0,,
 IU399 ,10955,0,2359,1643,,0,,,,0,,,,,,0,0,0,0,,,,,,400,,
 UN177 ,10955,0,1327,1643,,2205,,,,2303,,,,,,0,0,0,0,,,,,,420,,
 UV083 ,10955,0,105,1643,,2205,,,,0,,,,,,0,0,0,0,,,,,,340,,
 IU070 ,10955,0,6025,1643,,2205,,,,0,,,,,,0,0,0,0,,,,,,520,,
 IU036 ,10955,0,0,1643,,2205,,,,0,,,,,,0,0,0,0,,,,,,240,,
 IU367 ,10955,0,4298,1643,,2205,,,,0,,,,,,0,0,0,0,,,,,,480,,
 UP072 ,10955,0,0,1643,,1470,,,,0,,,,,,0,0,0,0,,,,,,200,,
 UP073 ,10955,0,6404,1643,,2205,,,,3230,,,,,,0,0,0,3700,,,,,,580,,
 IU315 ,10955,0,5288,1643,,2205,,,,0,,,,,,0,0,0,3700,,,,,,460,,
 UV085 ,10955,0,5288,1643,,2205,,,,1152,,,,,,0,0,0,3700,,,,,,480,,
 IU167 ,28090,0,0,0,,4916,,,,0,,,,,,11583,0,0,5500,,,,,,0,,
 IU401 ,10955,0,2170,1643,,2205,,,,0,,,,,,0,0,0,0,,,,,,380,,
 IU244 ,10955,0,0,1643,,1470,,,,0,,,,,,0,0,0,3700,,,,,,340,,
 IU252 ,10955,0,4614,1643,,2205,,,,0,,,,,,0,0,0,3650,,,,,,460,,
 IU258 ,10955,0,0,1643,,2205,,,,0,,,,,,0,0,0,3700,,,,,,280,,
 IU334 ,10955,0,1327,1643,,2205,,,,0,,,,,,0,0,0,3700,,,,,,380,,
 IU045 ,10955,0,0,1643,,2205,,,,0,,,,,,0,0,0,3150,,,,,,340,,
 IU344 ,10955,0,5288,1643,,2205,,,,0,,,,,,0,0,0,3700,,,,,,460,,
 IU238 ,10955,0,3834,1643,,2205,,,,0,,,,,,0,0,0,0,,,,,,440,,
 UV088 ,10955,0,3055,1643,,2205,,,,0,,,,,,0,0,0,0,,,,,,420,,
 IU181 ,10955,0,3392,1643,,2205,,,,2303,,,,,,0,0,0,0,,,,,,460,,
 IU349 ,10955,0,0,1643,,2205,,,,0,,,,,,0,0,0,0,,,,,,300,,
 IU381 ,10955,0,0,1643,,2205,,,,1152,,,,,,0,0,0,0,,,,,,300,,
 UV090 ,10955,0,0,1643,,2205,,,,0,,,,,,0,0,0,0,,,,,,340,,
 IU130 ,10955,0,0,1643,,2205,,,,0,,,,,,0,0,0,0,,,,,,340,,
 UV092 ,10955,0,0,1643,,2205,,,,1152,,,,,,0,0,0,5500,,,,,,360,,
 UN192 ,10955,0,1496,1643,,2205,,,,1152,,,,,,0,0,0,0,,,,,,400,,
 US054 ,10955,0,0,1643,,1470,,,,0,,,,,,2242,0,0,3650,,,,,,300,,
 IU316 ,10955,0,969,1643,,2205,,,,0,,,,,,0,0,0,0,,,,,,360,,
 IU264 ,10955,0,0,1643,,2205,,,,0,,,,,,0,0,0,0,,,,,,260,,
 IU050 ,10955,0,0,1643,,2205,,,,0,,,,,,0,0,0,0,,,,,,340,,
 IU131 ,10955,0,7352,1643,,1470,,,,0,,,,,,0,0,0,0,,,,,,500,,
 US055 ,10955,0,1475,1643,,2205,,,,1152,,,,,,0,0,0,3650,,,,,,380,,
 UN195 ,10955,0,6025,1643,,2205,,,,4607,,,,,,0,0,0,4750,,,,,,600,,
 US056 ,10955,0,0,1643,,1470,,,,0,,,,,,0,0,0,0,,,,,,160,,
 UP080 ,10955,0,6025,1643,,2205,,,,2303,,,,,,0,0,0,5500,,,,,,560,,
 UN197 ,10955,0,2338,1643,,2205,,,,1152,,,,,,0,0,0,3700,,,,,,400,,
 UP083 ,10955,0,5983,1643,,1470,,,,0,,,,,,0,0,0,0,,,,,,480,,
 IU132 ,10955,0,2528,1643,,2205,,,,0,,,,,,0,0,0,0,,,,,,400,,
 IU397 ,10955,0,0,1643,,0,,,,0,,,,,,0,0,0,0,,,,,,320,,
 UV094 ,10955,0,5161,1643,,2205,,,,3455,,,,,,0,0,0,5500,,,,,,560,,
 IU322 ,10955,0,3034,1643,,2205,,,,1152,,,,,,0,0,0,0,,,,,,420,,
 IU150 ,10955,0,1327,1643,,1470,,,,0,,,,,,0,0,0,0,,,,,,380,,
 IU151 ,18000,0,8481,0,,2205,,,,0,,,,,,0,0,0,0,,,,,,500,,
 UV095 ,10955,0,6025,1643,,2205,,,,2303,,,,,,0,0,0,0,,,,,,560,,
 IU152 ,10955,0,8047,1643,,1470,,,,0,,,,,,0,0,0,0,,,,,,520,,
 IU195 ,10955,0,6299,1643,,2205,,,,1152,,,,,,0,0,0,0,,,,,,480,,
 IU365 ,10955,0,0,1643,,735,,,,0,,,,,,0,0,0,0,,,,,,0,,
 IU320 ,10955,0,0,1643,,2205,,,,0,,,,,,0,0,0,0,,,,,,320,,
 UV049 ,10955,0,969,1643,,2205,,,,0,,,,,,0,0,0,0,,,,,,380,,
 IU134 ,10955,0,0,1643,,735,,,,0,,,,,,0,0,0,0,,,,,,40,,
 IU368 ,10955,0,0,1643,,735,,,,0,,,,,,0,0,0,0,,,,,,260,,
 IU052 ,10955,0,0,1643,,735,,,,0,,,,,,0,0,0,0,,,,,,40,,
 UV097 ,10955,0,5119,1643,,2205,,,,0,,,,,,0,0,0,3650,,,,,,460,,
 UV098 ,10955,0,0,1643,,2205,,,,1152,,,,,,0,0,0,0,,,,,,380,,
 IU390 ,10955,0,5161,1643,,2205,,,,2303,,,,,,0,0,0,0,,,,,,540,,
 IU345 ,10955,0,6847,1643,,2205,,,,3455,,,,,,0,0,0,0,,,,,,560,,
 IU270 ,24348,0,0,3652,,2934,,,,2560,,,,,,0,0,0,0,,,,,,360,,
 IU350 ,10955,0,295,1643,,2205,,,,1376,,,,,,0,0,0,0,,,,,,380,,
 IU241 ,10955,0,0,1643,,2205,,,,1152,,,,,,0,0,0,0,,,,,,340,,
 IU366 ,10955,0,632,1643,,735,,,,0,,,,,,0,0,0,0,,,,,,360,,
