Team Name,Team Venue,,,
Embu College Queens,Embu,,,
Juja Talent Mentors,Juja,,,
Mathare United Womenm,Mathare,,,
Kayole Starlets,Kayole,,,
Veteran Homegirls,Thika,,,
Kiambu Starlets,Kiambu,,,
Nyakach United,Kisii,,,
Savannah Cement,Nairobi,,,
Eastleigh Youth,Eastleigh,,,
KEMU,Nairobi,,,
Meru Tigers,Meru,,,
AP Bomet,Bomet,,,
Magarini,Kilifi,,,
Green Berret,Nairobi,,,
Fresha,Nairobi,,,
Mumbi Nationale,Thika,,,
VEGPRO,Nairobi,,,
TRANSFOC,Nairobi,,,
coast stima,Mombasa,,,
Isibania,Nairobi,,,
Brinks FC,Nairobi,,,
AP,Embakassi,,,
Tim Sales,Nairobi,,,
Kengen Olkaria,Kindaruma,,,
Green Commandos,Naivasha,,,
Silibwet,Bomet,,,
Uasin Gishu,Uasin Gishu,,,
GFE 105,BOmet,,,
Kibera Black Stars,Kibera,,,
Kisumu Hot Stars,Kisumu,,,
Bondo United,Bondo,,,
Libinu Rangers,Limuru,,,
Fortune Sacco,Naivasha,,,Nite
Palos,Naivasha,,,
Talanta,Kilifi,,,
ST. Joseph,Nairobi,,,
BIDCO,Thika,,,
KCB,Nairobi,,,
Nakumatt,Nairobi,,,
Vihiga United,Vihiga,,,
West Kenya,Bungoma,,,
Nairobi Stima,Nairobi,,,
MOSCA,Nairobi,,,
Agro Chemicals,Nairobi,,,
Ligi Ndogo,Nairobi,,,
Nakuru All Stars,Nakuru,,,
Police,Nakuru,,,
Zoo Kericho,Kericho,,,
oserian ,Naivasha,,,
K- Sharks,Naivasha,,,
Modern Coast,Malindi,,,
Wazito,Nairobi,,,
Vihiga Queens,Naivasha,,,
Vihiga Leeds,Naivasha,,,
Soccer Queens,Nairobi,,,
Makolanders,Nairobi,,,
Socccer Sisters,Nairobi,,,
Eldoret Falcons,Eldoret,,,
Nzoia Sugar ,Nzoia,,,
Spedag,Nairobi,,,
Thika Queens,Thika,,,
Baringo County Starlets,Baringo,,,
GASPO Youth FC,Nairobi,,,
Mombasa Olympic,Mombasa,,,
Wadadia,Wadadia,,,
Oserian Ladies,Naivasha,,,
Strathmore,Strathmore,,,
Nyamira Starlets,Nyamira,,,
